[
	{
		"id": "0",
		"coverImage": "https://scontent.fcjs3-2.fna.fbcdn.net/v/t1.0-9/76756948_274178300159743_554778005046558720_n.jpg?_nc_cat=101&_nc_ohc=ohAuEAk3LLcAQlqh0I65JvQb0RkZ_P6JySTGsVFXC3r2W-0F7HmyYOiWA&_nc_ht=scontent.fcjs3-2.fna&oh=ca09c0a57b242b88047b3c5d159700c7&oe=5E89186E",
		"title": "La aventura de Meli",
		"description": "Conoce a la abejita Meli y descubre nuevas cosas a través de su historia."
	},
	{
		"id": "1",
		"coverImage": "https://scontent.fcjs3-2.fna.fbcdn.net/v/t1.0-9/76756948_274178300159743_554778005046558720_n.jpg?_nc_cat=101&_nc_ohc=ohAuEAk3LLcAQlqh0I65JvQb0RkZ_P6JySTGsVFXC3r2W-0F7HmyYOiWA&_nc_ht=scontent.fcjs3-2.fna&oh=ca09c0a57b242b88047b3c5d159700c7&oe=5E89186E",
		"title": "La aventura de Meli",
		"description": "Conoce a la abejita Meli y descubre nuevas cosas a través de su historia."
	},
	{
		"id": "2",
		"coverImage": "https://scontent.fcjs3-2.fna.fbcdn.net/v/t1.0-9/76756948_274178300159743_554778005046558720_n.jpg?_nc_cat=101&_nc_ohc=ohAuEAk3LLcAQlqh0I65JvQb0RkZ_P6JySTGsVFXC3r2W-0F7HmyYOiWA&_nc_ht=scontent.fcjs3-2.fna&oh=ca09c0a57b242b88047b3c5d159700c7&oe=5E89186E",
		"title": "La aventura de Meli",
		"description": "Conoce a la abejita Meli y descubre nuevas cosas a través de su historia."
	}
]
